[gd_scene load_steps=2 format=3 uid="uid://324ucoblyn5q"]

[ext_resource type="Script" path="res://levels/Spawner.gd" id="1_64xip"]

[node name="Spawner" type="Node3D"]
script = ExtResource("1_64xip")
